[{
  "id": 1,
  "fecha": "4/11/2019",
  "importe": 70,
  "latitud": 26.312444,
  "longitud": 99.850365,
  "ciudad": "Shaxi"
}, {
  "id": 2,
  "fecha": "11/18/2018",
  "importe": 51,
  "latitud": 41.326318,
  "longitud": 109.327018,
  "ciudad": "Daliuhao"
}, {
  "id": 3,
  "fecha": "1/4/2019",
  "importe": 86,
  "latitud": 37.9380499,
  "longitud": 22.836589,
  "ciudad": "Periyiáli"
}, {
  "id": 4,
  "fecha": "3/15/2019",
  "importe": 43,
  "latitud": 47.2495437,
  "longitud": 107.5408308,
  "ciudad": "Bayan"
}, {
  "id": 5,
  "fecha": "6/3/2019",
  "importe": 86,
  "latitud": 12.4544798,
  "longitud": 7.4976536,
  "ciudad": "Dutsin Ma"
}, {
  "id": 6,
  "fecha": "9/3/2019",
  "importe": 78,
  "latitud": 61.1699194,
  "longitud": 33.0828972,
  "ciudad": "Kola"
}, {
  "id": 7,
  "fecha": "2/7/2019",
  "importe": 64,
  "latitud": 63.839604,
  "longitud": -22.410284,
  "ciudad": "Grindavík"
}, {
  "id": 8,
  "fecha": "3/3/2019",
  "importe": 45,
  "latitud": 48.103358,
  "longitud": 135.672144,
  "ciudad": "Mukhen"
}, {
  "id": 9,
  "fecha": "11/20/2018",
  "importe": 82,
  "latitud": 25.3462553,
  "longitud": 55.4209317,
  "ciudad": "Sharjah"
}, {
  "id": 10,
  "fecha": "6/2/2019",
  "importe": 57,
  "latitud": -7.1364308,
  "longitud": 110.4098775,
  "ciudad": "Ungaran"
}, {
  "id": 11,
  "fecha": "12/26/2018",
  "importe": 86,
  "latitud": 57.9536921,
  "longitud": 102.7445248,
  "ciudad": "Ust’-Ilimsk"
}, {
  "id": 12,
  "fecha": "4/29/2019",
  "importe": 29,
  "latitud": 12.9796798,
  "longitud": 123.9196804,
  "ciudad": "Bagacay"
}, {
  "id": 13,
  "fecha": "12/8/2018",
  "importe": 39,
  "latitud": 38.8393743,
  "longitud": -9.4606374,
  "ciudad": "Azenhas do Mar"
}, {
  "id": 14,
  "fecha": "5/18/2019",
  "importe": 33,
  "latitud": -23.2245912,
  "longitud": -52.7670021,
  "ciudad": "Mirador"
}, {
  "id": 15,
  "fecha": "11/30/2018",
  "importe": 82,
  "latitud": 54.134434,
  "longitud": 51.5316589,
  "ciudad": "Isakly"
}, {
  "id": 16,
  "fecha": "4/25/2019",
  "importe": 7,
  "latitud": 53.36117,
  "longitud": 14.8784944,
  "ciudad": "Kobylanka"
}, {
  "id": 17,
  "fecha": "2/12/2019",
  "importe": 2,
  "latitud": 3.5931213,
  "longitud": 97.2221421,
  "ciudad": "Meukek"
}, {
  "id": 18,
  "fecha": "12/21/2018",
  "importe": 22,
  "latitud": 51.962948,
  "longitud": -1.875716,
  "ciudad": "Ford"
}, {
  "id": 19,
  "fecha": "9/24/2019",
  "importe": 73,
  "latitud": 53.4513,
  "longitud": 17.5316201,
  "ciudad": "Sępólno Krajeńskie"
}, {
  "id": 20,
  "fecha": "1/16/2019",
  "importe": 22,
  "latitud": "56.37737",
  "longitud": "37.32871",
  "ciudad": "Novosin’kovo"
}]
